{
  "overwrite": true,
  "config": {
    "strict": true,
    "namingConvention": "keep",
    "scalars": {
      "ID": "string | number"
    },
    "maybeValue": "T"
  },
  "generates": {
    "src/generated-admin-types.ts": {
      "schema": "http://localhost:3000/admin-api",
      "plugins": [
        {
          "add": { "content": "/* eslint-disable */" }
        },
        "typescript",
        "typescript-compatibility"
      ]
    },
    "src/generated-shop-types.ts": {
      "schema": "http://localhost:3000/shop-api",
      "plugins": [
        {
          "add": { "content": "/* eslint-disable */" }
        },
        "typescript",
        "typescript-compatibility"
      ]
    },
    "src/generated-graphql-admin-errors.ts": {
      "schema": "http://localhost:3000/admin-api",
      "plugins": [
        {
          "add": { "content": "/* eslint-disable */" }
        },
        "codegen/graphql-errors/graphql-errors-plugin.js"
      ]
    },
    "src/generated-graphql-shop-errors.ts": {
      "schema": "http://localhost:3000/shop-api",
      "plugins": [
        {
          "add": { "content": "/* eslint-disable */" }
        },
        "codegen/graphql-errors/graphql-errors-plugin.js"
      ]
    }
  }
}
